{
  "16": {
    "kog_final": [{
      "name": "kog_final",
      "score": 75,
      "score_criteria_id": 3
    }],
    "kog_kd_final": [{
      "name": "final_criteria-3_KD-3.2",
      "score": 73.333336,
      "score_criteria_id": 3,
      "slug_kd": "3.2"
    }, {
      "name": "final_criteria-3_KD-3.3",
      "score": 75.5,
      "score_criteria_id": 3,
      "slug_kd": "3.3"
    }, {
      "name": "final_criteria-3_KD-3.1",
      "score": 76,
      "score_criteria_id": 3,
      "slug_kd": "3.1"
    }],
    "psi_final": [{
      "name": "psi_final",
      "score": 71,
      "score_criteria_id": 4
    }],
    "psi_kd_final": [{
      "name": "final_criteria-4_KD-4.3",
      "score": 70,
      "score_criteria_id": 4,
      "slug_kd": "4.3"
    }, {
      "name": "final_criteria-4_KD-4.1",
      "score": 62.5,
      "score_criteria_id": 4,
      "slug_kd": "4.1"
    }, {
      "name": "final_criteria-4_KD-4.2",
      "score": 80,
      "score_criteria_id": 4,
      "slug_kd": "4.2"
    }],
    "score_final": [{
      "name": "score_final",
      "score": 72.6
    }]
  },
  "17": {
    "kog_final": [{
      "name": "kog_final",
      "score": 70,
      "score_criteria_id": 3
    }],
    "kog_kd_final": [{
      "name": "final_criteria-3_KD-3.1",
      "score": 64.5,
      "score_criteria_id": 3,
      "slug_kd": "3.1"
    }, {
      "name": "final_criteria-3_KD-3.2",
      "score": 60.666668,
      "score_criteria_id": 3,
      "slug_kd": "3.2"
    }, {
      "name": "final_criteria-3_KD-3.3",
      "score": 84,
      "score_criteria_id": 3,
      "slug_kd": "3.3"
    }],
    "psi_final": [{
      "name": "psi_final",
      "score": 80,
      "score_criteria_id": 4
    }],
    "psi_kd_final": [{
      "name": "final_criteria-4_KD-4.1",
      "score": 83.5,
      "score_criteria_id": 4,
      "slug_kd": "4.1"
    }, {
      "name": "final_criteria-4_KD-4.2",
      "score": 84.5,
      "score_criteria_id": 4,
      "slug_kd": "4.2"
    }, {
      "name": "final_criteria-4_KD-4.3",
      "score": 71.5,
      "score_criteria_id": 4,
      "slug_kd": "4.3"
    }],
    "score_final": [{
      "name": "score_final",
      "score": 76
    }]
  },
  "18": {
    "kog_final": [{
      "name": "kog_final",
      "score": 70,
      "score_criteria_id": 3
    }],
    "kog_kd_final": [{
      "name": "final_criteria-3_KD-3.1",
      "score": 68.5,
      "score_criteria_id": 3,
      "slug_kd": "3.1"
    }, {
      "name": "final_criteria-3_KD-3.2",
      "score": 71.666664,
      "score_criteria_id": 3,
      "slug_kd": "3.2"
    }, {
      "name": "final_criteria-3_KD-3.3",
      "score": 69,
      "score_criteria_id": 3,
      "slug_kd": "3.3"
    }],
    "psi_final": [{
      "name": "psi_final",
      "score": 72,
      "score_criteria_id": 4
    }],
    "psi_kd_final": [{
      "name": "final_criteria-4_KD-4.1",
      "score": 65,
      "score_criteria_id": 4,
      "slug_kd": "4.1"
    }, {
      "name": "final_criteria-4_KD-4.2",
      "score": 93,
      "score_criteria_id": 4,
      "slug_kd": "4.2"
    }, {
      "name": "final_criteria-4_KD-4.3",
      "score": 57,
      "score_criteria_id": 4,
      "slug_kd": "4.3"
    }],
    "score_final": [{
      "name": "score_final",
      "score": 71.2
    }]
  },
  "19": {
    "kog_final": [{
      "name": "kog_final",
      "score": 73,
      "score_criteria_id": 3
    }],
    "kog_kd_final": [{
      "name": "final_criteria-3_KD-3.1",
      "score": 70.5,
      "score_criteria_id": 3,
      "slug_kd": "3.1"
    }, {
      "name": "final_criteria-3_KD-3.2",
      "score": 77.666664,
      "score_criteria_id": 3,
      "slug_kd": "3.2"
    }, {
      "name": "final_criteria-3_KD-3.3",
      "score": 68.5,
      "score_criteria_id": 3,
      "slug_kd": "3.3"
    }],
    "psi_final": [{
      "name": "psi_final",
      "score": 76,
      "score_criteria_id": 4
    }],
    "psi_kd_final": [{
      "name": "final_criteria-4_KD-4.1",
      "score": 73,
      "score_criteria_id": 4,
      "slug_kd": "4.1"
    }, {
      "name": "final_criteria-4_KD-4.2",
      "score": 72.5,
      "score_criteria_id": 4,
      "slug_kd": "4.2"
    }, {
      "name": "final_criteria-4_KD-4.3",
      "score": 82,
      "score_criteria_id": 4,
      "slug_kd": "4.3"
    }],
    "score_final": [{
      "name": "score_final",
      "score": 74.8
    }]
  },
  "20": {
    "kog_final": [{
      "name": "kog_final",
      "score": 69,
      "score_criteria_id": 3
    }],
    "kog_kd_final": [{
      "name": "final_criteria-3_KD-3.1",
      "score": 69,
      "score_criteria_id": 3,
      "slug_kd": "3.1"
    }, {
      "name": "final_criteria-3_KD-3.2",
      "score": 71,
      "score_criteria_id": 3,
      "slug_kd": "3.2"
    }, {
      "name": "final_criteria-3_KD-3.3",
      "score": 67,
      "score_criteria_id": 3,
      "slug_kd": "3.3"
    }],
    "psi_final": [{
      "name": "psi_final",
      "score": 83,
      "score_criteria_id": 4
    }],
    "psi_kd_final": [{
      "name": "final_criteria-4_KD-4.2",
      "score": 70,
      "score_criteria_id": 4,
      "slug_kd": "4.2"
    }, {
      "name": "final_criteria-4_KD-4.3",
      "score": 85.5,
      "score_criteria_id": 4,
      "slug_kd": "4.3"
    }, {
      "name": "final_criteria-4_KD-4.1",
      "score": 93.5,
      "score_criteria_id": 4,
      "slug_kd": "4.1"
    }],
    "score_final": [{
      "name": "score_final",
      "score": 77.4
    }]
  },
  "21": {
    "kog_final": [{
      "name": "kog_final",
      "score": 68,
      "score_criteria_id": 3
    }],
    "kog_kd_final": [{
      "name": "final_criteria-3_KD-3.1",
      "score": 57,
      "score_criteria_id": 3,
      "slug_kd": "3.1"
    }, {
      "name": "final_criteria-3_KD-3.2",
      "score": 79.666664,
      "score_criteria_id": 3,
      "slug_kd": "3.2"
    }, {
      "name": "final_criteria-3_KD-3.3",
      "score": 66,
      "score_criteria_id": 3,
      "slug_kd": "3.3"
    }],
    "psi_final": [{
      "name": "psi_final",
      "score": 76,
      "score_criteria_id": 4
    }],
    "psi_kd_final": [{
      "name": "final_criteria-4_KD-4.3",
      "score": 67.5,
      "score_criteria_id": 4,
      "slug_kd": "4.3"
    }, {
      "name": "final_criteria-4_KD-4.1",
      "score": 79.5,
      "score_criteria_id": 4,
      "slug_kd": "4.1"
    }, {
      "name": "final_criteria-4_KD-4.2",
      "score": 80.5,
      "score_criteria_id": 4,
      "slug_kd": "4.2"
    }],
    "score_final": [{
      "name": "score_final",
      "score": 72.8
    }]
  },
  "22": {
    "kog_final": [{
      "name": "kog_final",
      "score": 77,
      "score_criteria_id": 3
    }],
    "kog_kd_final": [{
      "name": "final_criteria-3_KD-3.3",
      "score": 91,
      "score_criteria_id": 3,
      "slug_kd": "3.3"
    }, {
      "name": "final_criteria-3_KD-3.1",
      "score": 69.5,
      "score_criteria_id": 3,
      "slug_kd": "3.1"
    }, {
      "name": "final_criteria-3_KD-3.2",
      "score": 67.666664,
      "score_criteria_id": 3,
      "slug_kd": "3.2"
    }],
    "psi_final": [{
      "name": "psi_final",
      "score": 79,
      "score_criteria_id": 4
    }],
    "psi_kd_final": [{
      "name": "final_criteria-4_KD-4.2",
      "score": 88.5,
      "score_criteria_id": 4,
      "slug_kd": "4.2"
    }, {
      "name": "final_criteria-4_KD-4.3",
      "score": 52.5,
      "score_criteria_id": 4,
      "slug_kd": "4.3"
    }, {
      "name": "final_criteria-4_KD-4.1",
      "score": 94,
      "score_criteria_id": 4,
      "slug_kd": "4.1"
    }],
    "score_final": [{
      "name": "score_final",
      "score": 78.2
    }]
  },
  "23": {
    "kog_final": [{
      "name": "kog_final",
      "score": 67,
      "score_criteria_id": 3
    }],
    "kog_kd_final": [{
      "name": "final_criteria-3_KD-3.3",
      "score": 69.5,
      "score_criteria_id": 3,
      "slug_kd": "3.3"
    }, {
      "name": "final_criteria-3_KD-3.1",
      "score": 67.5,
      "score_criteria_id": 3,
      "slug_kd": "3.1"
    }, {
      "name": "final_criteria-3_KD-3.2",
      "score": 62.333332,
      "score_criteria_id": 3,
      "slug_kd": "3.2"
    }],
    "psi_final": [{
      "name": "psi_final",
      "score": 79,
      "score_criteria_id": 4
    }],
    "psi_kd_final": [{
      "name": "final_criteria-4_KD-4.3",
      "score": 80,
      "score_criteria_id": 4,
      "slug_kd": "4.3"
    }, {
      "name": "final_criteria-4_KD-4.1",
      "score": 82.5,
      "score_criteria_id": 4,
      "slug_kd": "4.1"
    }, {
      "name": "final_criteria-4_KD-4.2",
      "score": 73.5,
      "score_criteria_id": 4,
      "slug_kd": "4.2"
    }],
    "score_final": [{
      "name": "score_final",
      "score": 74.2
    }]
  },
  "24": {
    "kog_final": [{
      "name": "kog_final",
      "score": 89,
      "score_criteria_id": 3
    }],
    "kog_kd_final": [{
      "name": "final_criteria-3_KD-3.2",
      "score": 82.333336,
      "score_criteria_id": 3,
      "slug_kd": "3.2"
    }, {
      "name": "final_criteria-3_KD-3.3",
      "score": 93,
      "score_criteria_id": 3,
      "slug_kd": "3.3"
    }, {
      "name": "final_criteria-3_KD-3.1",
      "score": 89.5,
      "score_criteria_id": 3,
      "slug_kd": "3.1"
    }],
    "psi_final": [{
      "name": "psi_final",
      "score": 77,
      "score_criteria_id": 4
    }],
    "psi_kd_final": [{
      "name": "final_criteria-4_KD-4.2",
      "score": 79,
      "score_criteria_id": 4,
      "slug_kd": "4.2"
    }, {
      "name": "final_criteria-4_KD-4.3",
      "score": 62,
      "score_criteria_id": 4,
      "slug_kd": "4.3"
    }, {
      "name": "final_criteria-4_KD-4.1",
      "score": 87.5,
      "score_criteria_id": 4,
      "slug_kd": "4.1"
    }],
    "score_final": [{
      "name": "score_final",
      "score": 81.8
    }]
  },
  "25": {
    "kog_final": [{
      "name": "kog_final",
      "score": 73,
      "score_criteria_id": 3
    }],
    "kog_kd_final": [{
      "name": "final_criteria-3_KD-3.1",
      "score": 79,
      "score_criteria_id": 3,
      "slug_kd": "3.1"
    }, {
      "name": "final_criteria-3_KD-3.2",
      "score": 71,
      "score_criteria_id": 3,
      "slug_kd": "3.2"
    }, {
      "name": "final_criteria-3_KD-3.3",
      "score": 67,
      "score_criteria_id": 3,
      "slug_kd": "3.3"
    }],
    "psi_final": [{
      "name": "psi_final",
      "score": 71,
      "score_criteria_id": 4
    }],
    "psi_kd_final": [{
      "name": "final_criteria-4_KD-4.3",
      "score": 61.5,
      "score_criteria_id": 4,
      "slug_kd": "4.3"
    }, {
      "name": "final_criteria-4_KD-4.1",
      "score": 73,
      "score_criteria_id": 4,
      "slug_kd": "4.1"
    }, {
      "name": "final_criteria-4_KD-4.2",
      "score": 78.5,
      "score_criteria_id": 4,
      "slug_kd": "4.2"
    }],
    "score_final": [{
      "name": "score_final",
      "score": 71.8
    }]
  },
  "26": {
    "kog_final": [{
      "name": "kog_final",
      "score": 76,
      "score_criteria_id": 3
    }],
    "kog_kd_final": [{
      "name": "final_criteria-3_KD-3.1",
      "score": 84,
      "score_criteria_id": 3,
      "slug_kd": "3.1"
    }, {
      "name": "final_criteria-3_KD-3.2",
      "score": 68.666664,
      "score_criteria_id": 3,
      "slug_kd": "3.2"
    }, {
      "name": "final_criteria-3_KD-3.3",
      "score": 75,
      "score_criteria_id": 3,
      "slug_kd": "3.3"
    }],
    "psi_final": [{
      "name": "psi_final",
      "score": 75,
      "score_criteria_id": 4
    }],
    "psi_kd_final": [{
      "name": "final_criteria-4_KD-4.1",
      "score": 84,
      "score_criteria_id": 4,
      "slug_kd": "4.1"
    }, {
      "name": "final_criteria-4_KD-4.2",
      "score": 71.5,
      "score_criteria_id": 4,
      "slug_kd": "4.2"
    }, {
      "name": "final_criteria-4_KD-4.3",
      "score": 68.5,
      "score_criteria_id": 4,
      "slug_kd": "4.3"
    }],
    "score_final": [{
      "name": "score_final",
      "score": 75.4
    }]
  },
  "27": {
    "kog_final": [{
      "name": "kog_final",
      "score": 77,
      "score_criteria_id": 3
    }],
    "kog_kd_final": [{
      "name": "final_criteria-3_KD-3.2",
      "score": 69.666664,
      "score_criteria_id": 3,
      "slug_kd": "3.2"
    }, {
      "name": "final_criteria-3_KD-3.3",
      "score": 74.5,
      "score_criteria_id": 3,
      "slug_kd": "3.3"
    }, {
      "name": "final_criteria-3_KD-3.1",
      "score": 85,
      "score_criteria_id": 3,
      "slug_kd": "3.1"
    }],
    "psi_final": [{
      "name": "psi_final",
      "score": 77,
      "score_criteria_id": 4
    }],
    "psi_kd_final": [{
      "name": "final_criteria-4_KD-4.1",
      "score": 67,
      "score_criteria_id": 4,
      "slug_kd": "4.1"
    }, {
      "name": "final_criteria-4_KD-4.2",
      "score": 79.5,
      "score_criteria_id": 4,
      "slug_kd": "4.2"
    }, {
      "name": "final_criteria-4_KD-4.3",
      "score": 84.5,
      "score_criteria_id": 4,
      "slug_kd": "4.3"
    }],
    "score_final": [{
      "name": "score_final",
      "score": 77
    }]
  },
  "28": {
    "kog_final": [{
      "name": "kog_final",
      "score": 82,
      "score_criteria_id": 3
    }],
    "kog_kd_final": [{
      "name": "final_criteria-3_KD-3.1",
      "score": 67,
      "score_criteria_id": 3,
      "slug_kd": "3.1"
    }, {
      "name": "final_criteria-3_KD-3.2",
      "score": 87.666664,
      "score_criteria_id": 3,
      "slug_kd": "3.2"
    }, {
      "name": "final_criteria-3_KD-3.3",
      "score": 88.5,
      "score_criteria_id": 3,
      "slug_kd": "3.3"
    }],
    "psi_final": [{
      "name": "psi_final",
      "score": 85,
      "score_criteria_id": 4
    }],
    "psi_kd_final": [{
      "name": "final_criteria-4_KD-4.1",
      "score": 93,
      "score_criteria_id": 4,
      "slug_kd": "4.1"
    }, {
      "name": "final_criteria-4_KD-4.2",
      "score": 85,
      "score_criteria_id": 4,
      "slug_kd": "4.2"
    }, {
      "name": "final_criteria-4_KD-4.3",
      "score": 77,
      "score_criteria_id": 4,
      "slug_kd": "4.3"
    }],
    "score_final": [{
      "name": "score_final",
      "score": 83.8
    }]
  },
  "29": {
    "kog_final": [{
      "name": "kog_final",
      "score": 72,
      "score_criteria_id": 3
    }],
    "kog_kd_final": [{
      "name": "final_criteria-3_KD-3.1",
      "score": 61,
      "score_criteria_id": 3,
      "slug_kd": "3.1"
    }, {
      "name": "final_criteria-3_KD-3.2",
      "score": 86,
      "score_criteria_id": 3,
      "slug_kd": "3.2"
    }, {
      "name": "final_criteria-3_KD-3.3",
      "score": 66.5,
      "score_criteria_id": 3,
      "slug_kd": "3.3"
    }],
    "psi_final": [{
      "name": "psi_final",
      "score": 83,
      "score_criteria_id": 4
    }],
    "psi_kd_final": [{
      "name": "final_criteria-4_KD-4.1",
      "score": 86.5,
      "score_criteria_id": 4,
      "slug_kd": "4.1"
    }, {
      "name": "final_criteria-4_KD-4.2",
      "score": 70,
      "score_criteria_id": 4,
      "slug_kd": "4.2"
    }, {
      "name": "final_criteria-4_KD-4.3",
      "score": 91.5,
      "score_criteria_id": 4,
      "slug_kd": "4.3"
    }],
    "score_final": [{
      "name": "score_final",
      "score": 78.6
    }]
  },
  "30": {
    "kog_final": [{
      "name": "kog_final",
      "score": 75,
      "score_criteria_id": 3
    }],
    "kog_kd_final": [{
      "name": "final_criteria-3_KD-3.1",
      "score": 71.5,
      "score_criteria_id": 3,
      "slug_kd": "3.1"
    }, {
      "name": "final_criteria-3_KD-3.2",
      "score": 68.333336,
      "score_criteria_id": 3,
      "slug_kd": "3.2"
    }, {
      "name": "final_criteria-3_KD-3.3",
      "score": 82.5,
      "score_criteria_id": 3,
      "slug_kd": "3.3"
    }],
    "psi_final": [{
      "name": "psi_final",
      "score": 80,
      "score_criteria_id": 4
    }],
    "psi_kd_final": [{
      "name": "final_criteria-4_KD-4.1",
      "score": 71.5,
      "score_criteria_id": 4,
      "slug_kd": "4.1"
    }, {
      "name": "final_criteria-4_KD-4.2",
      "score": 86,
      "score_criteria_id": 4,
      "slug_kd": "4.2"
    }, {
      "name": "final_criteria-4_KD-4.3",
      "score": 81.5,
      "score_criteria_id": 4,
      "slug_kd": "4.3"
    }],
    "score_final": [{
      "name": "score_final",
      "score": 78
    }]
  },
  "31": {
    "kog_final": [{
      "name": "kog_final",
      "score": 80,
      "score_criteria_id": 3
    }],
    "kog_kd_final": [{
      "name": "final_criteria-3_KD-3.1",
      "score": 85.5,
      "score_criteria_id": 3,
      "slug_kd": "3.1"
    }, {
      "name": "final_criteria-3_KD-3.2",
      "score": 68,
      "score_criteria_id": 3,
      "slug_kd": "3.2"
    }, {
      "name": "final_criteria-3_KD-3.3",
      "score": 84,
      "score_criteria_id": 3,
      "slug_kd": "3.3"
    }],
    "psi_final": [{
      "name": "psi_final",
      "score": 90,
      "score_criteria_id": 4
    }],
    "psi_kd_final": [{
      "name": "final_criteria-4_KD-4.1",
      "score": 80.5,
      "score_criteria_id": 4,
      "slug_kd": "4.1"
    }, {
      "name": "final_criteria-4_KD-4.2",
      "score": 97.5,
      "score_criteria_id": 4,
      "slug_kd": "4.2"
    }, {
      "name": "final_criteria-4_KD-4.3",
      "score": 90.5,
      "score_criteria_id": 4,
      "slug_kd": "4.3"
    }],
    "score_final": [{
      "name": "score_final",
      "score": 86
    }]
  },
  "32": {
    "kog_final": [{
      "name": "kog_final",
      "score": 76,
      "score_criteria_id": 3
    }],
    "kog_kd_final": [{
      "name": "final_criteria-3_KD-3.3",
      "score": 60.5,
      "score_criteria_id": 3,
      "slug_kd": "3.3"
    }, {
      "name": "final_criteria-3_KD-3.1",
      "score": 79,
      "score_criteria_id": 3,
      "slug_kd": "3.1"
    }, {
      "name": "final_criteria-3_KD-3.2",
      "score": 86,
      "score_criteria_id": 3,
      "slug_kd": "3.2"
    }],
    "psi_final": [{
      "name": "psi_final",
      "score": 78,
      "score_criteria_id": 4
    }],
    "psi_kd_final": [{
      "name": "final_criteria-4_KD-4.2",
      "score": 66.5,
      "score_criteria_id": 4,
      "slug_kd": "4.2"
    }, {
      "name": "final_criteria-4_KD-4.3",
      "score": 76,
      "score_criteria_id": 4,
      "slug_kd": "4.3"
    }, {
      "name": "final_criteria-4_KD-4.1",
      "score": 90,
      "score_criteria_id": 4,
      "slug_kd": "4.1"
    }],
    "score_final": [{
      "name": "score_final",
      "score": 77.2
    }]
  },
  "33": {
    "kog_final": [{
      "name": "kog_final",
      "score": 79,
      "score_criteria_id": 3
    }],
    "kog_kd_final": [{
      "name": "final_criteria-3_KD-3.1",
      "score": 93,
      "score_criteria_id": 3,
      "slug_kd": "3.1"
    }, {
      "name": "final_criteria-3_KD-3.2",
      "score": 72,
      "score_criteria_id": 3,
      "slug_kd": "3.2"
    }, {
      "name": "final_criteria-3_KD-3.3",
      "score": 72,
      "score_criteria_id": 3,
      "slug_kd": "3.3"
    }],
    "psi_final": [{
      "name": "psi_final",
      "score": 88,
      "score_criteria_id": 4
    }],
    "psi_kd_final": [{
      "name": "final_criteria-4_KD-4.1",
      "score": 97.5,
      "score_criteria_id": 4,
      "slug_kd": "4.1"
    }, {
      "name": "final_criteria-4_KD-4.2",
      "score": 82,
      "score_criteria_id": 4,
      "slug_kd": "4.2"
    }, {
      "name": "final_criteria-4_KD-4.3",
      "score": 82.5,
      "score_criteria_id": 4,
      "slug_kd": "4.3"
    }],
    "score_final": [{
      "name": "score_final",
      "score": 84.4
    }]
  },
  "34": {
    "kog_final": [{
      "name": "kog_final",
      "score": 74,
      "score_criteria_id": 3
    }],
    "kog_kd_final": [{
      "name": "final_criteria-3_KD-3.1",
      "score": 73.5,
      "score_criteria_id": 3,
      "slug_kd": "3.1"
    }, {
      "name": "final_criteria-3_KD-3.2",
      "score": 81.333336,
      "score_criteria_id": 3,
      "slug_kd": "3.2"
    }, {
      "name": "final_criteria-3_KD-3.3",
      "score": 66.5,
      "score_criteria_id": 3,
      "slug_kd": "3.3"
    }],
    "psi_final": [{
      "name": "psi_final",
      "score": 72,
      "score_criteria_id": 4
    }],
    "psi_kd_final": [{
      "name": "final_criteria-4_KD-4.3",
      "score": 75.5,
      "score_criteria_id": 4,
      "slug_kd": "4.3"
    }, {
      "name": "final_criteria-4_KD-4.1",
      "score": 70,
      "score_criteria_id": 4,
      "slug_kd": "4.1"
    }, {
      "name": "final_criteria-4_KD-4.2",
      "score": 70.5,
      "score_criteria_id": 4,
      "slug_kd": "4.2"
    }],
    "score_final": [{
      "name": "score_final",
      "score": 72.8
    }]
  },
  "35": {
    "kog_final": [{
      "name": "kog_final",
      "score": 76,
      "score_criteria_id": 3
    }],
    "kog_kd_final": [{
      "name": "final_criteria-3_KD-3.1",
      "score": 83.5,
      "score_criteria_id": 3,
      "slug_kd": "3.1"
    }, {
      "name": "final_criteria-3_KD-3.2",
      "score": 87,
      "score_criteria_id": 3,
      "slug_kd": "3.2"
    }, {
      "name": "final_criteria-3_KD-3.3",
      "score": 57.5,
      "score_criteria_id": 3,
      "slug_kd": "3.3"
    }],
    "psi_final": [{
      "name": "psi_final",
      "score": 84,
      "score_criteria_id": 4
    }],
    "psi_kd_final": [{
      "name": "final_criteria-4_KD-4.2",
      "score": 89.5,
      "score_criteria_id": 4,
      "slug_kd": "4.2"
    }, {
      "name": "final_criteria-4_KD-4.3",
      "score": 87,
      "score_criteria_id": 4,
      "slug_kd": "4.3"
    }, {
      "name": "final_criteria-4_KD-4.1",
      "score": 73,
      "score_criteria_id": 4,
      "slug_kd": "4.1"
    }],
    "score_final": [{
      "name": "score_final",
      "score": 80.8
    }]
  }
}