[{
  "name": "kog_final",
  "input": "score_details",
  "formulas": [
    {
      "name": "kog1_scores",
      "method": "filter",
      "input": "score_details",
      "options": {
        "score_criteria_id": 3
      }
    },
    {
      "name": "kog2_kd_final_score",
      "method": "groupBy",
      "input": "kog1_scores",
      "options": {
        "name": "kd_kog_score",
        "by_key": "slug_kd",
        "formulas": [
          {
            "name": "group_final",
            "method": "join",
            "input": "kd_kog_score",
            "options": {
              "operation": "average",
              "properties": [ "slug_kd", "score_criteria_id"] 
            }
          }
        ]
      }
    },
    {
      "name": "kog3_final_score",
      "method": "join",
      "input": "kog2_kd_final_score",
      "options": {
        "operation": "average",
        "properties": [ "score_criteria_id" ]
      }
    },
    {
      "name": "kog_final",
      "method": "math",
      "input": "kog3_final_score",
      "options": {
        "operation": "round",
        "precision": 2
      }
    }
  ]
},
{
  "name": "psi_final",
  "input": "score_details",
  "formulas": [
    {
      "name": "psi1_scores",
      "method": "filter",
      "input": "score_details",
      "options": {
        "score_criteria_id": 4
      }
    },
    {
      "name": "psi2_kd_final_score",
      "method": "groupBy",
      "input": "psi1_scores",
      "options": {
        "by_key": "slug_kd",
        "name": "kd_psi_score",
        "formulas": [
          {
            "name": "kd_psi_group_score",
            "method": "groupBy",
            "input": "kd_psi_score",
            "options": {
              "by_key": "score_method_id",
              "name": "method_psi_score",
              "formulas": [
                {
                  "name": "group_final",
                  "method": "join",
                  "input": "method_psi_score",
                  "options": {
                    "operation": "max",
                    "properties": [
                      "score_method_id", "score_criteria_id", "slug_kd"
                    ]
                  }
                }
              ]
            }
          },
          {
            "name": "group_final",
            "method": "join",
            "input": "kd_psi_group_score",
            "options": {
              "operation": "average",
              "properties": [ "score_criteria_id", "slug_kd" ]
            }
          }
        ]
      }
    },
    {
      "name": "psi3_final_score",
      "method": "join",
      "input": "psi2_kd_final_score",
      "options": {
        "operation": "average",
        "properties": [ "score_criteria_id" ] 
      }
    },
    {
      "name": "psi_final",
      "method": "math",
      "input": "psi3_final_score",
      "options": {
        "operation": "round",
        "precision": 2
      }
    }
  ]
},
{
  "name": "score_final",
  "input": "score_finals",
  "formulas": [
    {
      "method": "rawMath",
      "name": "kog_final2",
      "options": {
        "operation": "#kog_final * 0.4"
      }
    },
    {
      "name": "psi_final2",
      "method": "rawMath",
      "options": {
        "operation": "#psi_final * 0.6"
      }
    },
    {
      "name": "score_final",
      "method": "rawMath",
      "options": {
        "operation": "#kog_final2 + #psi_final2"
      }
    }
  ] 
}]