[{
  "name": "psi_final",
  "input": "score_details",
  "formulas": [
    {
      "name": "scores",
      "method": "filter",
      "output": "psi1_scores",
      "options": {
        "score_criteria_id": 4
      }
    },
    {
      "name": "psi_final",
      "method": "join",
      "input": "psi1_scores",
      "options": {
        "operation": "average",
        "properties": [
          "score_criteria_id"
        ]
      }
    }
  ]
}]
